..............
----------------------------------------------------------------------
Ran 14 tests in 0.001s

OK
Name               Stmts   Miss Branch BrPart  Cover   Missing
--------------------------------------------------------------
Diplomacy.py          73      0     54      1    99%   47->49
TestDiplomacy.py      60      0      4      1    98%   121->exit
--------------------------------------------------------------
TOTAL                133      0     58      2    99%
