...............
----------------------------------------------------------------------
Ran 15 tests in 0.002s

OK
Name               Stmts   Miss Branch BrPart  Cover   Missing
--------------------------------------------------------------
Diplomacy.py          54      0     44      0   100%
TestDiplomacy.py     116      0      0      0   100%
--------------------------------------------------------------
TOTAL                170      0     44      0   100%
