...........................
----------------------------------------------------------------------
Ran 27 tests in 0.000s

OK
Name               Stmts   Miss Branch BrPart  Cover   Missing
--------------------------------------------------------------
Diplomacy.py         155      3    112      5    97%   37, 102, 129->136, 134, 185->exit, 301->304
TestDiplomacy.py     130      0      2      0   100%
--------------------------------------------------------------
TOTAL                285      3    114      5    98%
