.............
----------------------------------------------------------------------
Ran 13 tests in 0.003s

OK
Name               Stmts   Miss Branch BrPart  Cover   Missing
--------------------------------------------------------------
Diplomacy.py         106      7     50      4    89%   30->exit, 82->86, 86->exit, 118-125, 133-135
TestDiplomacy.py      54      0      4      1    98%   100->exit
--------------------------------------------------------------
TOTAL                160      7     54      5    92%
