................
----------------------------------------------------------------------
Ran 16 tests in 0.002s

OK
Name               Stmts   Miss Branch BrPart  Cover   Missing
--------------------------------------------------------------
Diplomacy.py          79      0     50      0   100%
TestDiplomacy.py      85      0      2      0   100%
--------------------------------------------------------------
TOTAL                164      0     52      0   100%
