................
----------------------------------------------------------------------
Ran 16 tests in 0.006s

OK
Name               Stmts   Miss Branch BrPart  Cover   Missing
--------------------------------------------------------------
Diplomacy.py          99      0     56      3    98%   95->107, 99->107, 123->122
TestDiplomacy.py      80      0      0      0   100%
--------------------------------------------------------------
TOTAL                179      0     56      3    99%