........
----------------------------------------------------------------------
Ran 8 tests in 0.002s

OK
Name               Stmts   Miss Branch BrPart  Cover   Missing
--------------------------------------------------------------
Diplomacy.py          57      0     38      2    98%   65->67, 76->exit
TestDiplomacy.py      44      0      0      0   100%
--------------------------------------------------------------
TOTAL                101      0     38      2    99%
