.................
----------------------------------------------------------------------
Ran 17 tests in 0.003s

OK
Name               Stmts   Miss Branch BrPart  Cover   Missing
--------------------------------------------------------------
Diplomacy.py         120      0     68      8    96%   96->98, 112->exit, 118->exit, 125->exit, 136->139, 205->194, 208->exit, 217->exit
TestDiplomacy.py      79      0     20      1    99%   120->exit
--------------------------------------------------------------
TOTAL                199      0     88      9    97%
